…
```r
gapminder_year_wide <- gapminder %>%
  select(country, pop, year) %>%
  filter(year == 1952 | year == 2007) %>%
  pivot_wider(names_from = year,
              values_from = pop)
gapminder_year_wide <- gapminder_year_wide %>%
  mutate(pop_change = gapminder_year_wide$`2007` - gapminder_year_wide$`1952`) %>%
  arrange(desc(pop_change))

gapminder_year_wide
```

```
## # A tibble: 142 x 4
##    country          `1952`     `2007` pop_change
##    <fct>             <int>      <int>      <int>
##  1 China         556263527 1318683096  762419569
##  2 India         372000000 1110396331  738396331
##  3 United States 157553000  301139947  143586947
##  4 Indonesia      82052000  223547000  141495000
##  5 Brazil         56602560  190010647  133408087
##  6 Pakistan       41346560  169270617  127924057
##  7 Bangladesh     46886859  150448339  103561480
##  8 Nigeria        33119096  135031164  101912068
##  9 Mexico         30144317  108700891   78556574
## 10 Philippines    22438691   91077287   68638596
## # ... with 132 more rows
```
…
