…
```r
anyNA(life_expectancy)
```

```
## [1] TRUE
```

```r
miss_var_summary(life_expectancy)
```

```
## # A tibble: 302 x 3
##    variable n_miss pct_miss
##    <chr>     <int>    <dbl>
##  1 X1800         3     1.60
##  2 X1801         3     1.60
##  3 X1802         3     1.60
##  4 X1803         3     1.60
##  5 X1804         3     1.60
##  6 X1805         3     1.60
##  7 X1806         3     1.60
##  8 X1807         3     1.60
##  9 X1808         3     1.60
## 10 X1809         3     1.60
## # ... with 292 more rows
```
…
3. (2 points) Let's limit the data to 100 years (1920-2020). For these years, which country has the highest average life expectancy? How about the lowest average life expectancy?  


```r
life_expectancy_lim <- life_expectancy_long %>%
  filter(year >= 1920, year <=2020) %>%
  group_by(country) %>%
  summarise(average_life_expectancy = mean(life_expectancy, na.rm = T)) %>%
  arrange(desc(average_life_expectancy))
life_expectancy_lim
```

```
## # A tibble: 187 x 2
##    country     average_life_expectancy
##    <chr>                         <dbl>
##  1 Andorra                        79.8
##  2 Sweden                         73.5
##  3 Norway                         73.2
##  4 Netherlands                    73.0
##  5 Dominica                       73.0
##  6 Iceland                        72.9
##  7 Australia                      72.7
##  8 Switzerland                    72.7
##  9 Denmark                        71.9
## 10 Canada                         71.8
## # ... with 177 more rows
```
…
```r
life_expectancy_100 <- life_expectancy_long %>%
  filter(year >= 1920, year <= 2020)
population_100 <- population_total_long %>%
  filter(year >= 1920, year <= 2020)
income_100 <- income_long %>%
  filter(year >= 1920, year <= 2020)

gapminder_join <- inner_join(life_expectancy_100, population_100, by= c("country", "year"))
gapminder_join <- inner_join(gapminder_join, income_100, by= c("country", "year"))
gapminder_join
```

```
## # A tibble: 18,887 x 5
##    country      year life_expectancy population_size income
##    <chr>       <int>           <dbl>           <int>  <int>
##  1 Afghanistan  1920            30.6        10600000   1490
##  2 Afghanistan  1921            30.7        10500000   1520
##  3 Afghanistan  1922            30.8        10300000   1550
##  4 Afghanistan  1923            30.8         9710000   1570
##  5 Afghanistan  1924            30.9         9200000   1600
##  6 Afghanistan  1925            31           8720000   1630
##  7 Afghanistan  1926            31           8260000   1650
##  8 Afghanistan  1927            31.1         7830000   1680
##  9 Afghanistan  1928            31.1         7420000   1710
## 10 Afghanistan  1929            31.2         7100000   1740
## # ... with 18,877 more rows
```
…
