…
2. Which cities in California have the highest number of colleges?

```r
num_colleges <- colleges %>%
  group_by(city) %>%
  summarise(num_colleges = n()) %>%
  arrange(desc(num_colleges))
num_colleges
```

```
## # A tibble: 161 x 2
##    city          num_colleges
##    <chr>                <int>
##  1 Los Angeles             24
##  2 San Diego               18
##  3 San Francisco           15
##  4 Sacramento              10
##  5 Berkeley                 9
##  6 Oakland                  9
##  7 Claremont                7
##  8 Pasadena                 6
##  9 Fresno                   5
## 10 Irvine                   5
## # ... with 151 more rows
```
…
