…
8. Among the bad guys, who are the male humans over 200 inches in height?

```r
tall_bad_guys <- bad_guys %>%
  filter(height > 200) %>%
  select(name)
tall_bad_guys
```

```
## # A tibble: 25 x 1
##    name          
##    <chr>         
##  1 Abomination   
##  2 Alien         
##  3 Amazo         
##  4 Apocalypse    
##  5 Bane          
##  6 Bloodaxe      
##  7 Darkseid      
##  8 Doctor Doom   
##  9 Doctor Doom II
## 10 Doomsday      
## # ... with 15 more rows
```
…
10. Let's explore who the really "big" superheros are. In the `superhero_info` data, which have a height over 200 or weight greater than or equal to 450?

```r
big_superhero <- superhero_info %>%
  filter(height > 200 | weight >= 450) %>%
  select(name, height, weight)
big_superhero
```

```
## # A tibble: 60 x 3
##    name          height weight
##    <chr>          <dbl>  <dbl>
##  1 A-Bomb           203    441
##  2 Abomination      203    441
##  3 Alien            244    169
##  4 Amazo            257    173
##  5 Ant-Man          211    122
##  6 Anti-Venom       229    358
##  7 Apocalypse       213    135
##  8 Bane             203    180
##  9 Beta Ray Bill    201    216
## 10 Bloodaxe         218    495
## # ... with 50 more rows
```
…
