…
```r
miss_var_summary(gabon)
```

```
## # A tibble: 26 x 3
##    variable      n_miss pct_miss
##    <chr>          <int>    <dbl>
##  1 TransectID         0        0
##  2 Distance           0        0
##  3 HuntCat            0        0
##  4 NumHouseholds      0        0
##  5 LandUse            0        0
##  6 Veg_Rich           0        0
##  7 Veg_Stems          0        0
##  8 Veg_liana          0        0
##  9 Veg_DBH            0        0
## 10 Veg_Canopy         0        0
## # ... with 16 more rows
```
…
